Data About Baby Names
…
## # A tibble: 138 × 2
##     year Total_Babies_Per_Year
##    <dbl>                 <int>
##  1  1880                201484
##  2  1881                192696
##  3  1882                221533
##  4  1883                216946
##  5  1884                243462
##  6  1885                240854
##  7  1886                255317
##  8  1887                247394
##  9  1888                299473
## 10  1889                288946
## # … with 128 more rows
…
## # A tibble: 30,563 × 4
##     year name            n sex  
##    <dbl> <chr>       <int> <chr>
##  1  2002 Jacob       30568 M    
##  2  2002 Michael     28246 M    
##  3  2002 Joshua      25986 M    
##  4  2002 Matthew     25151 M    
##  5  2002 Emily       24463 F    
##  6  2002 Ethan       22108 M    
##  7  2002 Andrew      22017 M    
##  8  2002 Joseph      21891 M    
##  9  2002 Madison     21773 F    
## 10  2002 Christopher 21681 M    
## # … with 30,553 more rows

## # A tibble: 18,606 × 3
## # Groups:   sex [2]
##    sex   name      total
##    <chr> <chr>     <int>
##  1 M     Michael  771991
##  2 M     James    757250
##  3 M     Robert   746569
##  4 M     John     718240
##  5 M     David    708922
##  6 F     Mary     560076
##  7 M     William  530335
##  8 M     Richard  484237
##  9 F     Linda    483880
## 10 F     Patricia 411678
## # … with 18,596 more rows
…
